ISSS608 Group 3 - Analysis of Climate Impact on Dengue - Time Series Forecasting
…
results <- arima_mdl %>%
  forecast(h = 26)

results <- results[-c(1,3)]
colnames(results) <- c("Date", "Forecast")

results

# A tsibble: 26 x 2 [7D]
   Date       Forecast
   <date>        <dbl>
 1 2020-11-30    225. 
 2 2020-12-07    168. 
 3 2020-12-14    120. 
 4 2020-12-21     79.8
 5 2020-12-28     52.5
 6 2021-01-04     38.3
 7 2021-01-11     35.9
 8 2021-01-18     42.8
 9 2021-01-25     55.8
10 2021-02-01     71.6
# ℹ 16 more rows
…
